ps3/simonsays.vcd
$version Generated by VerilatedVcd $end
$date Tue Dec  6 18:07:23 2022 $end
$timescale 1s $end

 $scope module TOP $end
  $var wire  1 h" blue $end
  $var wire  1 g" green $end
  $var wire  1 Y" hz100 $end
  $var wire  8 \" left [7:0] $end
  $var wire 20 [" pb [19:0] $end
  $var wire  1 f" red $end
  $var wire  1 Z" reset $end
  $var wire  8 ]" right [7:0] $end
  $var wire  8 e" ss0 [7:0] $end
  $var wire  8 d" ss1 [7:0] $end
  $var wire  8 c" ss2 [7:0] $end
  $var wire  8 b" ss3 [7:0] $end
  $var wire  8 a" ss4 [7:0] $end
  $var wire  8 `" ss5 [7:0] $end
  $var wire  8 _" ss6 [7:0] $end
  $var wire  8 ^" ss7 [7:0] $end
  $scope module simonsays $end
   $var wire  8 r" CLKDIV_LIM [7:0] $end
   $var wire  1 h" blue $end
   $var wire  1 7" clk $end
   $var wire  1 8" fr_en $end
   $var wire  8 U" fr_out [7:0] $end
   $var wire  1 g" green $end
   $var wire  1 Y" hz100 $end
   $var wire  1 C" is_correct $end
   $var wire  1 B" is_wrong $end
   $var wire  8 \" left [7:0] $end
   $var wire  1 T" mem_en $end
   $var wire 12 j" mem_out [11:0] $end
   $var wire 20 [" pb [19:0] $end
   $var wire  1 f" red $end
   $var wire  1 Z" reset $end
   $var wire  8 ]" right [7:0] $end
   $var wire  1 m" round_passed $end
   $var wire  4 :" score [3:0] $end
   $var wire  1 l" sd_is_empty $end
   $var wire 16 i" sd_out [15:0] $end
   $var wire  1 S" sd_srst $end
   $var wire  1 k" simon_says $end
   $var wire  8 e" ss0 [7:0] $end
   $var wire  8 d" ss1 [7:0] $end
   $var wire  8 c" ss2 [7:0] $end
   $var wire  8 b" ss3 [7:0] $end
   $var wire  8 a" ss4 [7:0] $end
   $var wire  8 `" ss5 [7:0] $end
   $var wire  8 _" ss6 [7:0] $end
   $var wire  8 ^" ss7 [7:0] $end
   $var wire  8 <" ssflag [7:0] $end
   $var wire  3 ;" state [2:0] $end
   $var wire  1 9" strobe $end
   $var wire  5 V" text0 [4:0] $end
   $var wire  5 W" text1 [4:0] $end
   $var wire  5 X" text2 [4:0] $end
   $var wire  5 =" text3 [4:0] $end
   $var wire  5 >" text4 [4:0] $end
   $var wire  5 ?" text5 [4:0] $end
   $var wire  5 @" text6 [4:0] $end
   $var wire  5 A" text7 [4:0] $end
   $scope module clkd $end
    $var wire  1 Y" clk $end
    $var wire  8 D" ctr [7:0] $end
    $var wire  1 7" hzX $end
    $var wire  8 r" lim [7:0] $end
    $var wire  1 Z" rst $end
   $upscope $end
   $scope module ctrl $end
    $var wire  1 Y" clk $end
    $var wire  3 ;" del_fsm [2:0] $end
    $var wire  1 8" fr_en $end
    $var wire  1 C" is_correct $end
    $var wire  1 B" is_wrong $end
    $var wire  1 T" mem_en $end
    $var wire  1 m" round_passed $end
    $var wire  1 Z" rst $end
    $var wire  4 :" score [3:0] $end
    $var wire  1 l" sd_is_empty $end
    $var wire  1 S" sd_srst $end
    $var wire  1 k" simon_says $end
    $var wire  1 9" sk_strobe $end
    $var wire  3 ;" state [2:0] $end
   $upscope $end
   $scope module freer $end
    $var wire  1 Y" clk $end
    $var wire  1 8" en $end
    $var wire  8 s" max [7:0] $end
    $var wire  8 U" out [7:0] $end
    $var wire  1 Z" rst $end
   $upscope $end
   $scope module me $end
    $var wire 12 j" btns [11:0] $end
    $var wire  1 Y" clk $end
    $var wire  1 T" en $end
    $var wire  8 U" sel [7:0] $end
   $upscope $end
   $scope module scank $end
    $var wire  1 Y" clk $end
    $var wire  1 E" delay $end
    $var wire 20 [" in [19:0] $end
    $var wire  5 n" out [4:0] $end
    $var wire  1 Z" rst $end
    $var wire  1 9" strobe $end
   $upscope $end
   $scope module shiftd $end
    $var wire  1 7" clk $end
    $var wire 16 i" out [15:0] $end
    $var wire  1 Z" rst $end
    $var wire  1 S" srst $end
   $upscope $end
   $scope module ssd0 $end
    $var wire  7 # LED[0] [6:0] $end
    $var wire  7 - LED[10] [6:0] $end
    $var wire  7 . LED[11] [6:0] $end
    $var wire  7 / LED[12] [6:0] $end
    $var wire  7 0 LED[13] [6:0] $end
    $var wire  7 1 LED[14] [6:0] $end
    $var wire  7 2 LED[15] [6:0] $end
    $var wire  7 3 LED[16] [6:0] $end
    $var wire  7 4 LED[17] [6:0] $end
    $var wire  7 5 LED[18] [6:0] $end
    $var wire  7 6 LED[19] [6:0] $end
    $var wire  7 $ LED[1] [6:0] $end
    $var wire  7 7 LED[20] [6:0] $end
    $var wire  7 8 LED[21] [6:0] $end
    $var wire  7 9 LED[22] [6:0] $end
    $var wire  7 : LED[23] [6:0] $end
    $var wire  7 ; LED[24] [6:0] $end
    $var wire  7 < LED[25] [6:0] $end
    $var wire  7 % LED[2] [6:0] $end
    $var wire  7 & LED[3] [6:0] $end
    $var wire  7 ' LED[4] [6:0] $end
    $var wire  7 ( LED[5] [6:0] $end
    $var wire  7 ) LED[6] [6:0] $end
    $var wire  7 * LED[7] [6:0] $end
    $var wire  7 + LED[8] [6:0] $end
    $var wire  7 , LED[9] [6:0] $end
    $var wire  1 F" enable $end
    $var wire  5 V" in [4:0] $end
    $var wire  7 o" out [6:0] $end
   $upscope $end
   $scope module ssd1 $end
    $var wire  7 = LED[0] [6:0] $end
    $var wire  7 G LED[10] [6:0] $end
    $var wire  7 H LED[11] [6:0] $end
    $var wire  7 I LED[12] [6:0] $end
    $var wire  7 J LED[13] [6:0] $end
    $var wire  7 K LED[14] [6:0] $end
    $var wire  7 L LED[15] [6:0] $end
    $var wire  7 M LED[16] [6:0] $end
    $var wire  7 N LED[17] [6:0] $end
    $var wire  7 O LED[18] [6:0] $end
    $var wire  7 P LED[19] [6:0] $end
    $var wire  7 > LED[1] [6:0] $end
    $var wire  7 Q LED[20] [6:0] $end
    $var wire  7 R LED[21] [6:0] $end
    $var wire  7 S LED[22] [6:0] $end
    $var wire  7 T LED[23] [6:0] $end
    $var wire  7 U LED[24] [6:0] $end
    $var wire  7 V LED[25] [6:0] $end
    $var wire  7 ? LED[2] [6:0] $end
    $var wire  7 @ LED[3] [6:0] $end
    $var wire  7 A LED[4] [6:0] $end
    $var wire  7 B LED[5] [6:0] $end
    $var wire  7 C LED[6] [6:0] $end
    $var wire  7 D LED[7] [6:0] $end
    $var wire  7 E LED[8] [6:0] $end
    $var wire  7 F LED[9] [6:0] $end
    $var wire  1 G" enable $end
    $var wire  5 W" in [4:0] $end
    $var wire  7 p" out [6:0] $end
   $upscope $end
   $scope module ssd2 $end
    $var wire  7 W LED[0] [6:0] $end
    $var wire  7 a LED[10] [6:0] $end
    $var wire  7 b LED[11] [6:0] $end
    $var wire  7 c LED[12] [6:0] $end
    $var wire  7 d LED[13] [6:0] $end
    $var wire  7 e LED[14] [6:0] $end
    $var wire  7 f LED[15] [6:0] $end
    $var wire  7 g LED[16] [6:0] $end
    $var wire  7 h LED[17] [6:0] $end
    $var wire  7 i LED[18] [6:0] $end
    $var wire  7 j LED[19] [6:0] $end
    $var wire  7 X LED[1] [6:0] $end
    $var wire  7 k LED[20] [6:0] $end
    $var wire  7 l LED[21] [6:0] $end
    $var wire  7 m LED[22] [6:0] $end
    $var wire  7 n LED[23] [6:0] $end
    $var wire  7 o LED[24] [6:0] $end
    $var wire  7 p LED[25] [6:0] $end
    $var wire  7 Y LED[2] [6:0] $end
    $var wire  7 Z LED[3] [6:0] $end
    $var wire  7 [ LED[4] [6:0] $end
    $var wire  7 \ LED[5] [6:0] $end
    $var wire  7 ] LED[6] [6:0] $end
    $var wire  7 ^ LED[7] [6:0] $end
    $var wire  7 _ LED[8] [6:0] $end
    $var wire  7 ` LED[9] [6:0] $end
    $var wire  1 H" enable $end
    $var wire  5 X" in [4:0] $end
    $var wire  7 q" out [6:0] $end
   $upscope $end
   $scope module ssd3 $end
    $var wire  7 q LED[0] [6:0] $end
    $var wire  7 { LED[10] [6:0] $end
    $var wire  7 | LED[11] [6:0] $end
    $var wire  7 } LED[12] [6:0] $end
    $var wire  7 ~ LED[13] [6:0] $end
    $var wire  7 !! LED[14] [6:0] $end
    $var wire  7 "! LED[15] [6:0] $end
    $var wire  7 #! LED[16] [6:0] $end
    $var wire  7 $! LED[17] [6:0] $end
    $var wire  7 %! LED[18] [6:0] $end
    $var wire  7 &! LED[19] [6:0] $end
    $var wire  7 r LED[1] [6:0] $end
    $var wire  7 '! LED[20] [6:0] $end
    $var wire  7 (! LED[21] [6:0] $end
    $var wire  7 )! LED[22] [6:0] $end
    $var wire  7 *! LED[23] [6:0] $end
    $var wire  7 +! LED[24] [6:0] $end
    $var wire  7 ,! LED[25] [6:0] $end
    $var wire  7 s LED[2] [6:0] $end
    $var wire  7 t LED[3] [6:0] $end
    $var wire  7 u LED[4] [6:0] $end
    $var wire  7 v LED[5] [6:0] $end
    $var wire  7 w LED[6] [6:0] $end
    $var wire  7 x LED[7] [6:0] $end
    $var wire  7 y LED[8] [6:0] $end
    $var wire  7 z LED[9] [6:0] $end
    $var wire  1 I" enable $end
    $var wire  5 =" in [4:0] $end
    $var wire  7 J" out [6:0] $end
   $upscope $end
   $scope module ssd4 $end
    $var wire  7 -! LED[0] [6:0] $end
    $var wire  7 7! LED[10] [6:0] $end
    $var wire  7 8! LED[11] [6:0] $end
    $var wire  7 9! LED[12] [6:0] $end
    $var wire  7 :! LED[13] [6:0] $end
    $var wire  7 ;! LED[14] [6:0] $end
    $var wire  7 <! LED[15] [6:0] $end
    $var wire  7 =! LED[16] [6:0] $end
    $var wire  7 >! LED[17] [6:0] $end
    $var wire  7 ?! LED[18] [6:0] $end
    $var wire  7 @! LED[19] [6:0] $end
    $var wire  7 .! LED[1] [6:0] $end
    $var wire  7 A! LED[20] [6:0] $end
    $var wire  7 B! LED[21] [6:0] $end
    $var wire  7 C! LED[22] [6:0] $end
    $var wire  7 D! LED[23] [6:0] $end
    $var wire  7 E! LED[24] [6:0] $end
    $var wire  7 F! LED[25] [6:0] $end
    $var wire  7 /! LED[2] [6:0] $end
    $var wire  7 0! LED[3] [6:0] $end
    $var wire  7 1! LED[4] [6:0] $end
    $var wire  7 2! LED[5] [6:0] $end
    $var wire  7 3! LED[6] [6:0] $end
    $var wire  7 4! LED[7] [6:0] $end
    $var wire  7 5! LED[8] [6:0] $end
    $var wire  7 6! LED[9] [6:0] $end
    $var wire  1 K" enable $end
    $var wire  5 >" in [4:0] $end
    $var wire  7 L" out [6:0] $end
   $upscope $end
   $scope module ssd5 $end
    $var wire  7 G! LED[0] [6:0] $end
    $var wire  7 Q! LED[10] [6:0] $end
    $var wire  7 R! LED[11] [6:0] $end
    $var wire  7 S! LED[12] [6:0] $end
    $var wire  7 T! LED[13] [6:0] $end
    $var wire  7 U! LED[14] [6:0] $end
    $var wire  7 V! LED[15] [6:0] $end
    $var wire  7 W! LED[16] [6:0] $end
    $var wire  7 X! LED[17] [6:0] $end
    $var wire  7 Y! LED[18] [6:0] $end
    $var wire  7 Z! LED[19] [6:0] $end
    $var wire  7 H! LED[1] [6:0] $end
    $var wire  7 [! LED[20] [6:0] $end
    $var wire  7 \! LED[21] [6:0] $end
    $var wire  7 ]! LED[22] [6:0] $end
    $var wire  7 ^! LED[23] [6:0] $end
    $var wire  7 _! LED[24] [6:0] $end
    $var wire  7 `! LED[25] [6:0] $end
    $var wire  7 I! LED[2] [6:0] $end
    $var wire  7 J! LED[3] [6:0] $end
    $var wire  7 K! LED[4] [6:0] $end
    $var wire  7 L! LED[5] [6:0] $end
    $var wire  7 M! LED[6] [6:0] $end
    $var wire  7 N! LED[7] [6:0] $end
    $var wire  7 O! LED[8] [6:0] $end
    $var wire  7 P! LED[9] [6:0] $end
    $var wire  1 M" enable $end
    $var wire  5 ?" in [4:0] $end
    $var wire  7 N" out [6:0] $end
   $upscope $end
   $scope module ssd6 $end
    $var wire  7 a! LED[0] [6:0] $end
    $var wire  7 k! LED[10] [6:0] $end
    $var wire  7 l! LED[11] [6:0] $end
    $var wire  7 m! LED[12] [6:0] $end
    $var wire  7 n! LED[13] [6:0] $end
    $var wire  7 o! LED[14] [6:0] $end
    $var wire  7 p! LED[15] [6:0] $end
    $var wire  7 q! LED[16] [6:0] $end
    $var wire  7 r! LED[17] [6:0] $end
    $var wire  7 s! LED[18] [6:0] $end
    $var wire  7 t! LED[19] [6:0] $end
    $var wire  7 b! LED[1] [6:0] $end
    $var wire  7 u! LED[20] [6:0] $end
    $var wire  7 v! LED[21] [6:0] $end
    $var wire  7 w! LED[22] [6:0] $end
    $var wire  7 x! LED[23] [6:0] $end
    $var wire  7 y! LED[24] [6:0] $end
    $var wire  7 z! LED[25] [6:0] $end
    $var wire  7 c! LED[2] [6:0] $end
    $var wire  7 d! LED[3] [6:0] $end
    $var wire  7 e! LED[4] [6:0] $end
    $var wire  7 f! LED[5] [6:0] $end
    $var wire  7 g! LED[6] [6:0] $end
    $var wire  7 h! LED[7] [6:0] $end
    $var wire  7 i! LED[8] [6:0] $end
    $var wire  7 j! LED[9] [6:0] $end
    $var wire  1 O" enable $end
    $var wire  5 @" in [4:0] $end
    $var wire  7 P" out [6:0] $end
   $upscope $end
   $scope module ssd7 $end
    $var wire  7 {! LED[0] [6:0] $end
    $var wire  7 '" LED[10] [6:0] $end
    $var wire  7 (" LED[11] [6:0] $end
    $var wire  7 )" LED[12] [6:0] $end
    $var wire  7 *" LED[13] [6:0] $end
    $var wire  7 +" LED[14] [6:0] $end
    $var wire  7 ," LED[15] [6:0] $end
    $var wire  7 -" LED[16] [6:0] $end
    $var wire  7 ." LED[17] [6:0] $end
    $var wire  7 /" LED[18] [6:0] $end
    $var wire  7 0" LED[19] [6:0] $end
    $var wire  7 |! LED[1] [6:0] $end
    $var wire  7 1" LED[20] [6:0] $end
    $var wire  7 2" LED[21] [6:0] $end
    $var wire  7 3" LED[22] [6:0] $end
    $var wire  7 4" LED[23] [6:0] $end
    $var wire  7 5" LED[24] [6:0] $end
    $var wire  7 6" LED[25] [6:0] $end
    $var wire  7 }! LED[2] [6:0] $end
    $var wire  7 ~! LED[3] [6:0] $end
    $var wire  7 !" LED[4] [6:0] $end
    $var wire  7 "" LED[5] [6:0] $end
    $var wire  7 #" LED[6] [6:0] $end
    $var wire  7 $" LED[7] [6:0] $end
    $var wire  7 %" LED[8] [6:0] $end
    $var wire  7 &" LED[9] [6:0] $end
    $var wire  1 Q" enable $end
    $var wire  5 A" in [4:0] $end
    $var wire  7 R" out [6:0] $end
   $upscope $end
  $upscope $end
 $upscope $end
$enddefinitions $end


#1
b0111111 #
b0000110 $
b1011011 %
b1001111 &
b1100110 '
b1101101 (
b1111101 )
b0000111 *
b1111111 +
b1100111 ,
b1110111 -
b1111100 .
b0111001 /
b1011110 0
b1111001 1
b1110001 2
b1101111 3
b1110110 4
b0010000 5
b0011110 6
b0111000 7
b1010100 8
b1010000 9
b1111000 :
b1101110 ;
b1010011 <
b0111111 =
b0000110 >
b1011011 ?
b1001111 @
b1100110 A
b1101101 B
b1111101 C
b0000111 D
b1111111 E
b1100111 F
b1110111 G
b1111100 H
b0111001 I
b1011110 J
b1111001 K
b1110001 L
b1101111 M
b1110110 N
b0010000 O
b0011110 P
b0111000 Q
b1010100 R
b1010000 S
b1111000 T
b1101110 U
b1010011 V
b0111111 W
b0000110 X
b1011011 Y
b1001111 Z
b1100110 [
b1101101 \
b1111101 ]
b0000111 ^
b1111111 _
b1100111 `
b1110111 a
b1111100 b
b0111001 c
b1011110 d
b1111001 e
b1110001 f
b1101111 g
b1110110 h
b0010000 i
b0011110 j
b0111000 k
b1010100 l
b1010000 m
b1111000 n
b1101110 o
b1010011 p
b0111111 q
b0000110 r
b1011011 s
b1001111 t
b1100110 u
b1101101 v
b1111101 w
b0000111 x
b1111111 y
b1100111 z
b1110111 {
b1111100 |
b0111001 }
b1011110 ~
b1111001 !!
b1110001 "!
b1101111 #!
b1110110 $!
b0010000 %!
b0011110 &!
b0111000 '!
b1010100 (!
b1010000 )!
b1111000 *!
b1101110 +!
b1010011 ,!
b0111111 -!
b0000110 .!
b1011011 /!
b1001111 0!
b1100110 1!
b1101101 2!
b1111101 3!
b0000111 4!
b1111111 5!
b1100111 6!
b1110111 7!
b1111100 8!
b0111001 9!
b1011110 :!
b1111001 ;!
b1110001 <!
b1101111 =!
b1110110 >!
b0010000 ?!
b0011110 @!
b0111000 A!
b1010100 B!
b1010000 C!
b1111000 D!
b1101110 E!
b1010011 F!
b0111111 G!
b0000110 H!
b1011011 I!
b1001111 J!
b1100110 K!
b1101101 L!
b1111101 M!
b0000111 N!
b1111111 O!
b1100111 P!
b1110111 Q!
b1111100 R!
b0111001 S!
b1011110 T!
b1111001 U!
b1110001 V!
b1101111 W!
b1110110 X!
b0010000 Y!
b0011110 Z!
b0111000 [!
b1010100 \!
b1010000 ]!
b1111000 ^!
b1101110 _!
b1010011 `!
b0111111 a!
b0000110 b!
b1011011 c!
b1001111 d!
b1100110 e!
b1101101 f!
b1111101 g!
b0000111 h!
b1111111 i!
b1100111 j!
b1110111 k!
b1111100 l!
b0111001 m!
b1011110 n!
b1111001 o!
b1110001 p!
b1101111 q!
b1110110 r!
b0010000 s!
b0011110 t!
b0111000 u!
b1010100 v!
b1010000 w!
b1111000 x!
b1101110 y!
b1010011 z!
b0111111 {!
b0000110 |!
b1011011 }!
b1001111 ~!
b1100110 !"
b1101101 ""
b1111101 #"
b0000111 $"
b1111111 %"
b1100111 &"
b1110111 '"
b1111100 ("
b0111001 )"
b1011110 *"
b1111001 +"
b1110001 ,"
b1101111 -"
b1110110 ."
b0010000 /"
b0011110 0"
b0111000 1"
b1010100 2"
b1010000 3"
b1111000 4"
b1101110 5"
b1010011 6"
07"
18"
19"
b1110 :"
b001 ;"
b11110111 <"
b00000 ="
b01101 >"
b10100 ?"
b00000 @"
b10001 A"
0B"
1C"
b01100011 D"
0E"
1F"
1G"
1H"
0I"
b0000000 J"
1K"
b1011110 L"
1M"
b0111000 N"
1O"
b0111111 P"
1Q"
b1110110 R"
0S"
0T"
b10110010 U"
b01100 V"
b00101 W"
b01000 X"
1Y"
0Z"
b11011101010100000010 ["
b01001101 \"
b01011000 ]"
b11110110 ^"
b10111111 _"
b10111000 `"
b11011110 a"
b00000000 b"
b01111111 c"
b11101101 d"
b10111001 e"
0f"
1g"
1h"
b0100110101011000 i"
b100001011100 j"
1k"
0l"
0m"
b11111 n"
b0111001 o"
b1101101 p"
b1111111 q"
b00000110 r"
b11111111 s"
#2
0Y"
#3
09"
b0000 :"
b000 ;"
b11111101 <"
b11000 ="
b01010 ?"
b01110 @"
b10110 A"
0C"
b00000000 D"
0G"
1I"
b1101110 J"
b1110111 N"
b1111001 P"
b1010000 R"
1S"
1T"
b00000000 U"
b00000 V"
b00000 W"
b11001 X"
1Y"
1Z"
b00000000000000000000 ["
b11111111 \"
b11111111 ]"
b11010000 ^"
b11111001 _"
b11110111 `"
b01101110 b"
b01010011 c"
b10000000 d"
b10111111 e"
0g"
0h"
b1111111111111111 i"
b00000 n"
b0111111 o"
b0000000 p"
b1010011 q"
#4
0Y"
#5
1Y"
b101011110101 j"
0k"
#6
0Y"
#7
1Y"
#8
0Y"
#9
1Y"
#10
0Y"
#11
1Y"
#12
0Y"
#13
1Y"
#14
0Y"
#15
1Y"
#16
0Y"
#17
1Y"
#18
0Y"
#19
1Y"
#20
0Y"
#21
1Y"
#22
0Y"
#23
1Y"
#24
0Y"
#25
1Y"
#26
0Y"
#27
1Y"
#28
0Y"
#29
1Y"
#30
0Y"
#31
1Y"
#32
0Y"
#33
1Y"
#34
0Y"
#35
1Y"
#36
0Y"
#37
1Y"
#38
0Y"
#39
1Y"
#40
0Y"
#41
1Y"
#42
0Y"
#43
1Y"
#44
0Y"
#45
1Y"
#46
0Y"
#47
1Y"
#48
0Y"
#49
1Y"
#50
0Y"
#51
1Y"
#52
0Y"
#53
1Y"
#54
0Y"
#55
1Y"
#56
0Y"
#57
1Y"
#58
0Y"
#59
1Y"
#60
0Y"
#61
1Y"
#62
0Y"
#63
1Y"
#64
0Y"
#65
1Y"
#66
0Y"
#67
1Y"
#68
0Y"
#69
1Y"
#70
0Y"
#71
1Y"
#72
0Y"
#73
1Y"
#74
0Y"
#75
1Y"
#76
0Y"
#77
1Y"
#78
0Y"
#79
1Y"
#80
0Y"
#81
1Y"
#82
0Y"
#83
1Y"
#84
0Y"
#85
1Y"
#86
0Y"
#87
1Y"
#88
0Y"
#89
1Y"
#90
0Y"
#91
1Y"
#92
0Y"
#93
1Y"
#94
0Y"
#95
1Y"
#96
0Y"
#97
1Y"
#98
0Y"
#99
1Y"
#100
0Y"
#101
1Y"
#102
0Y"
#103
1Y"
#104
0Y"
#105
1Y"
#106
0Y"
#107
1Y"
#108
0Y"
#109
1Y"
#110
0Y"
#111
1Y"
#112
0Y"
#113
1Y"
#114
0Y"
#115
1Y"
#116
0Y"
#117
1Y"
#118
0Y"
#119
1Y"
#120
0Y"
#121
1Y"
#122
0Y"
#123
1Y"
#124
0Y"
#125
1Y"
#126
0Y"
#127
1Y"
#128
0Y"
#129
1Y"
#130
0Y"
#131
1Y"
#132
0Y"
#133
1Y"
#134
0Y"
#135
1Y"
#136
0Y"
#137
1Y"
#138
0Y"
#139
1Y"
#140
0Y"
#141
1Y"
#142
0Y"
#143
1Y"
#144
0Y"
#145
1Y"
#146
0Y"
#147
1Y"
#148
0Y"
#149
1Y"
#150
0Y"
#151
1Y"
#152
0Y"
#153
1Y"
#154
0Y"
#155
1Y"
#156
0Y"
#157
1Y"
#158
0Y"
#159
1Y"
#160
0Y"
#161
1Y"
#162
0Y"
#163
1Y"
#164
0Y"
#165
1Y"
#166
0Y"
#167
1Y"
#168
0Y"
#169
1Y"
#170
0Y"
#171
1Y"
#172
0Y"
#173
1Y"
#174
0Y"
#175
1Y"
#176
0Y"
#177
1Y"
#178
0Y"
#179
1Y"
#180
0Y"
#181
1Y"
#182
0Y"
#183
1Y"
#184
0Y"
#185
1Y"
#186
0Y"
#187
1Y"
#188
0Y"
#189
1Y"
#190
0Y"
#191
1Y"
#192
0Y"
#193
1Y"
#194
0Y"
#195
1Y"
#196
0Y"
#197
1Y"
#198
0Y"
#199
1Y"
#200
0Y"
#201
1Y"
#202
0Y"
#203
1Y"
#204
0Y"
#205
0Z"
#206
b00000001 D"
0S"
b00000001 U"
1Y"
#207
0Y"
#208
b00000010 D"
b00000010 U"
1Y"
b010001101101 j"
#209
0Y"
#210
b00000011 D"
b00000011 U"
1Y"
b000101001001 j"
#211
0Y"
#212
b00000100 D"
b00000100 U"
1Y"
b010011111100 j"
1k"
#213
0Y"
#214
b00000101 D"
b00000101 U"
1Y"
b101011110111 j"
#215
0Y"
#216
b00000110 D"
b00000110 U"
1Y"
b001111100010 j"
0k"
#217
0Y"
#218
17"
b00000000 D"
b00000111 U"
1Y"
b01111111 \"
b0111111111111111 i"
b010010001011 j"
1k"
#219
0Y"
#220
b00000001 D"
b00001000 U"
1Y"
b000000010111 j"
0k"
#221
0Y"
#222
b00000010 D"
b00001001 U"
1Y"
b111010001111 j"
#223
0Y"
#224
b00000011 D"
b00001010 U"
1Y"
b100001101001 j"
1k"
#225
0Y"
#226
b00000100 D"
b00001011 U"
1Y"
b110100111001 j"
#227
0Y"
#228
b00000101 D"
b00001100 U"
1Y"
b000011000010 j"
#229
0Y"
#230
b00000110 D"
b00001101 U"
1Y"
b110011001111 j"
0k"
#231
0Y"
#232
07"
b00000000 D"
b00001110 U"
1Y"
b100110011010 j"
#233
0Y"
#234
b00000001 D"
b00001111 U"
1Y"
b011111010011 j"
#235
0Y"
#236
b00000010 D"
b00010000 U"
1Y"
b001100001111 j"
#237
0Y"
#238
b00000011 D"
b00010001 U"
1Y"
b100100101000 j"
#239
0Y"
#240
b00000100 D"
b00010010 U"
1Y"
b000010011100 j"
#241
0Y"
#242
b00000101 D"
b00010011 U"
1Y"
b100101110010 j"
#243
0Y"
#244
b00000110 D"
b00010100 U"
1Y"
b101011101001 j"
1k"
#245
0Y"
#246
17"
b00000000 D"
b00010101 U"
1Y"
b00111111 \"
b0011111111111111 i"
b001001101100 j"
#247
0Y"
#248
b00000001 D"
b00010110 U"
1Y"
b010110100101 j"
0k"
#249
0Y"
#250
b00000010 D"
b00010111 U"
1Y"
b001011000000 j"
1k"
#251
0Y"
#252
b00000011 D"
b00011000 U"
1Y"
b011111111000 j"
0k"
#253
0Y"
#254
b00000100 D"
b00011001 U"
1Y"
b110101000001 j"
1k"
#255
0Y"
#256
b00000101 D"
b00011010 U"
1Y"
b000111001111 j"
#257
0Y"
#258
b00000110 D"
b00011011 U"
1Y"
b101100010111 j"
#259
0Y"
#260
07"
b00000000 D"
b00011100 U"
1Y"
b100011001000 j"
0k"
#261
0Y"
#262
b00000001 D"
b00011101 U"
1Y"
b111100101000 j"
#263
0Y"
#264
b00000010 D"
b00011110 U"
1Y"
b110001011100 j"
#265
0Y"
#266
b00000011 D"
b00011111 U"
1Y"
b010100101100 j"
1k"
#267
0Y"
#268
b00000100 D"
b00100000 U"
1Y"
b011010011110 j"
#269
0Y"
#270
b00000101 D"
b00100001 U"
1Y"
b011101000100 j"
#271
0Y"
#272
b00000110 D"
b00100010 U"
1Y"
b001011101010 j"
0k"
#273
0Y"
#274
17"
b00000000 D"
b00100011 U"
1Y"
b00011111 \"
b0001111111111111 i"
b011101010010 j"
#275
0Y"
#276
b00000001 D"
b00100100 U"
1Y"
b101001110000 j"
1k"
#277
0Y"
#278
b00000010 D"
b00100101 U"
1Y"
b001000110000 j"
#279
0Y"
#280
b00000011 D"
b00100110 U"
1Y"
b011101010000 j"
#281
0Y"
#282
b00000100 D"
b00100111 U"
1Y"
b111000000100 j"
0k"
#283
0Y"
#284
b00000101 D"
b00101000 U"
1Y"
b000101011110 j"
#285
0Y"
#286
b00000110 D"
b00101001 U"
1Y"
b100110101100 j"
#287
0Y"
#288
07"
b00000000 D"
b00101010 U"
1Y"
b111011000010 j"
#289
0Y"
#290
b00000001 D"
b00101011 U"
1Y"
b110100010100 j"
1k"
#291
0Y"
#292
b00000010 D"
b00101100 U"
1Y"
b111101000000 j"
#293
0Y"
#294
b00000011 D"
b00101101 U"
1Y"
b000100100001 j"
#295
0Y"
#296
b00000100 D"
b00101110 U"
1Y"
b000001010100 j"
#297
0Y"
#298
b00000101 D"
b00101111 U"
1Y"
b001011111010 j"
#299
0Y"
#300
b00000110 D"
b00110000 U"
1Y"
b001111001010 j"
0k"
#301
0Y"
#302
17"
b00000000 D"
b00110001 U"
1Y"
b00001111 \"
b0000111111111111 i"
b100010011000 j"
#303
0Y"
#304
b00000001 D"
b00110010 U"
1Y"
b110001111011 j"
#305
0Y"
#306
b00000010 D"
b00110011 U"
1Y"
b010100000110 j"
#307
0Y"
#308
b00000011 D"
b00110100 U"
1Y"
b111000011110 j"
1k"
#309
0Y"
#310
b00000100 D"
b00110101 U"
1Y"
b101000011001 j"
#311
0Y"
#312
b00000101 D"
b00110110 U"
1Y"
b010100101101 j"
0k"
#313
0Y"
#314
b00000110 D"
b00110111 U"
1Y"
b101000111010 j"
#315
0Y"
#316
07"
b00000000 D"
b00111000 U"
1Y"
b100000001111 j"
1k"
#317
0Y"
#318
b00000001 D"
b00111001 U"
1Y"
b000110011110 j"
0k"
#319
0Y"
#320
b00000010 D"
b00111010 U"
1Y"
b101111101101 j"
1k"
#321
0Y"
#322
b00000011 D"
b00111011 U"
1Y"
b100011110000 j"
#323
0Y"
#324
b00000100 D"
b00111100 U"
1Y"
b010100110001 j"
#325
0Y"
#326
b00000101 D"
b00111101 U"
1Y"
b100111011010 j"
#327
0Y"
#328
b00000110 D"
b00111110 U"
1Y"
b100111010100 j"
0k"
#329
0Y"
#330
17"
b00000000 D"
b00111111 U"
1Y"
b00000111 \"
b0000011111111111 i"
b001011110000 j"
1k"
#331
0Y"
#332
b00000001 D"
b01000000 U"
1Y"
b010001111001 j"
0k"
#333
0Y"
#334
b00000010 D"
b01000001 U"
1Y"
b111111000010 j"
1k"
#335
0Y"
#336
b00000011 D"
b01000010 U"
1Y"
b011000100011 j"
#337
0Y"
#338
b00000100 D"
b01000011 U"
1Y"
b101011011101 j"
0k"
#339
0Y"
#340
b00000101 D"
b01000100 U"
1Y"
b101000111000 j"
1k"
#341
0Y"
#342
b00000110 D"
b01000101 U"
1Y"
b111001100101 j"
#343
0Y"
#344
07"
b00000000 D"
b01000110 U"
1Y"
b011110011100 j"
#345
0Y"
#346
b00000001 D"
b01000111 U"
1Y"
b010100110000 j"
0k"
#347
0Y"
#348
b00000010 D"
b01001000 U"
1Y"
b101010001001 j"
1k"
#349
0Y"
#350
b00000011 D"
b01001001 U"
1Y"
b110101001111 j"
0k"
#351
0Y"
#352
b00000100 D"
b01001010 U"
1Y"
b011010010010 j"
1k"
#353
0Y"
#354
b00000101 D"
b01001011 U"
1Y"
b110110010110 j"
#355
0Y"
#356
b00000110 D"
b01001100 U"
1Y"
b000000100110 j"
#357
0Y"
#358
17"
b00000000 D"
b01001101 U"
1Y"
b00000011 \"
b0000001111111111 i"
b101010101000 j"
#359
0Y"
#360
b00000001 D"
b01001110 U"
1Y"
b001011011110 j"
#361
0Y"
#362
b00000010 D"
b01001111 U"
1Y"
b111111000011 j"
0k"
#363
0Y"
#364
b00000011 D"
b01010000 U"
1Y"
b100001001111 j"
#365
0Y"
#366
b00000100 D"
b01010001 U"
1Y"
b010000010001 j"
1k"
#367
0Y"
#368
b00000101 D"
b01010010 U"
1Y"
b110111100110 j"
0k"
#369
0Y"
#370
b00000110 D"
b01010011 U"
1Y"
b101010100111 j"
1k"
#371
0Y"
#372
07"
b00000000 D"
b01010100 U"
1Y"
b010100100010 j"
0k"
#373
0Y"
